<svg width="520" height="412" viewBox="0 0 520 412" fill="none" xmlns="http://www.w3.org/2000/svg">
<path opacity="0.1" d="M472.492 158.191C474.19 209.207 456.992 261.903 389.992 319.575C306.048 391.831 98.8209 403.747 55.0907 306.728C25.7108 241.463 84.6068 152.527 100.494 134.929C162.484 66.2596 226.5 44.9437 295.5 35.9438C364.5 26.9439 469.734 72.3672 472.492 158.191Z" fill="#A8CBFF"/>
<g clip-path="url(#clip0)">
<path d="M84.8986 286.607C84.8986 283.302 99.904 283.532 109.662 282.892C127.032 281.753 154.08 286.607 154.08 286.607C154.08 286.607 169.023 286.996 184.233 286.996C246.01 286.996 296.09 290.65 296.09 295.157C296.09 299.664 246.01 303.318 184.233 303.318C122.456 303.318 72.3763 299.664 72.3763 295.157C72.3763 293.446 79.5901 291.858 91.9193 290.547C87.5478 289.494 84.8986 288.116 84.8986 286.607Z" fill="#BAC7F7"/>
<path d="M336.61 101.224H208.123V180.583H336.61V101.224Z" fill="#00BEB9"/>
<path d="M333.95 104.443H210.782V177.364H333.95V104.443Z" fill="white"/>
<path d="M321.494 166.447V133.555H315.056V166.447H310.857V142.513H304.279V166.447H300.22V131.736H293.642V166.447H289.443V126.697H283.004V166.447H278.805V142.513H272.367V166.447H267.328V121.658H265.929V167.847H326.253V166.447H321.494Z" fill="#353537"/>
<path d="M256.691 117.179H220.021V119.418H256.691V117.179Z" fill="#00BEB9"/>
<path d="M256.691 123.477H220.021V125.716H256.691V123.477Z" fill="#00BEB9"/>
<path d="M238.076 129.775H220.021V132.015H238.076V129.775Z" fill="#00BEB9"/>
<path d="M243.674 157.489V163.788L240.315 167.007H234.156V157.489H243.674Z" fill="#00BEB9"/>
<path d="M243.676 163.787L240.317 167.007V163.787H243.676Z" fill="#00A49F"/>
<path d="M229.82 157.489H220.302V167.007H229.82V157.489Z" fill="#F065A6"/>
<path d="M221.519 159.363H228.003" stroke="white" stroke-width="0.648446"/>
<path d="M221.519 161.309H228.003" stroke="white" stroke-width="0.648446"/>
<path d="M221.519 163.254H228.003" stroke="white" stroke-width="0.648446"/>
<path d="M221.519 165.199H225.41" stroke="white" stroke-width="0.648446"/>
<path d="M318.275 124.737L312.677 126.137L314.216 127.676L307.498 134.115L284.684 116.339L273.347 124.877L274.187 125.997L284.684 118.159L307.638 135.934L315.196 128.656L316.736 130.196L318.275 124.737Z" fill="#00BEB9"/>
<path d="M233.035 145.172C233.035 148.811 230.096 151.75 226.457 151.75C222.818 151.75 219.879 148.811 219.879 145.172C219.879 141.533 222.818 138.594 226.457 138.594C230.096 138.734 233.035 141.533 233.035 145.172Z" fill="#5202B5"/>
<path d="M226.598 140.554C224.078 140.554 221.979 142.653 221.979 145.173C221.979 147.692 224.078 149.791 226.598 149.791C229.117 149.791 231.216 147.692 231.216 145.173C231.077 142.653 229.117 140.554 226.598 140.554ZM225.758 141.254C225.338 141.534 224.918 142.233 224.778 142.933C224.358 142.793 224.078 142.653 223.798 142.373C224.218 141.813 224.918 141.394 225.758 141.254ZM223.378 142.793C223.658 143.073 224.078 143.213 224.638 143.493C224.498 143.913 224.498 144.473 224.498 145.033H222.679C222.539 144.193 222.819 143.353 223.378 142.793ZM222.539 145.453H224.358C224.358 146.012 224.498 146.572 224.638 147.132C224.218 147.272 223.798 147.552 223.378 147.692C222.959 147.132 222.539 146.292 222.539 145.453ZM223.658 147.972C223.938 147.692 224.358 147.552 224.638 147.412C224.918 148.112 225.198 148.672 225.618 149.092C224.918 148.952 224.218 148.532 223.658 147.972ZM226.318 148.952C225.898 148.812 225.478 148.252 225.198 147.412C225.618 147.272 225.898 147.272 226.318 147.272V148.952ZM226.318 146.712C225.898 146.712 225.478 146.852 225.058 146.852C224.918 146.432 224.918 145.872 224.918 145.313H226.458V146.712H226.318ZM226.318 145.033H224.778C224.778 144.473 224.918 144.053 224.918 143.493C225.338 143.633 225.758 143.633 226.178 143.633V145.033H226.318ZM226.318 143.213C225.898 143.213 225.478 143.073 225.198 143.073C225.478 142.233 225.898 141.534 226.318 141.394V143.213ZM230.517 145.033H228.697C228.697 144.473 228.557 143.913 228.557 143.493C228.977 143.353 229.397 143.073 229.817 142.793C230.237 143.353 230.517 144.193 230.517 145.033ZM229.397 142.373C229.117 142.653 228.697 142.793 228.417 142.933C228.137 142.233 227.857 141.534 227.437 141.254C228.137 141.394 228.837 141.813 229.397 142.373ZM226.738 141.394C227.158 141.534 227.717 142.093 227.857 143.073C227.437 143.213 227.018 143.213 226.738 143.213V141.394ZM226.738 143.633C227.158 143.633 227.577 143.493 227.997 143.493C228.137 143.913 228.137 144.473 228.137 145.033H226.598V143.633H226.738ZM226.738 145.453H228.277C228.277 146.012 228.137 146.572 228.137 146.992C227.717 146.852 227.297 146.852 226.878 146.852V145.453H226.738ZM226.738 148.952V147.132C227.158 147.132 227.577 147.272 227.857 147.272C227.717 148.252 227.297 148.812 226.738 148.952ZM227.297 149.092C227.717 148.812 227.997 148.252 228.277 147.412C228.697 147.552 228.977 147.692 229.257 147.972C228.837 148.532 228.137 148.952 227.297 149.092ZM229.677 147.692C229.397 147.412 228.977 147.272 228.417 147.132C228.557 146.572 228.557 146.012 228.697 145.453H230.517C230.517 146.292 230.237 147.132 229.677 147.692Z" fill="white"/>
<path d="M242.415 151.611C245.971 151.611 248.853 148.729 248.853 145.173C248.853 141.617 245.971 138.734 242.415 138.734C238.859 138.734 235.977 141.617 235.977 145.173C235.977 148.729 238.859 151.611 242.415 151.611Z" fill="#E34932"/>
<path d="M246.193 144.332H245.353C245.353 144.052 245.213 143.912 245.073 143.772L245.633 143.213C245.773 143.073 245.773 142.793 245.633 142.653L244.933 141.953C244.793 141.813 244.513 141.813 244.373 141.953L243.814 142.513C243.674 142.373 243.394 142.373 243.254 142.233V141.393C243.254 141.113 243.114 140.973 242.834 140.973H241.854C241.574 140.973 241.434 141.113 241.434 141.393V142.233C241.154 142.233 241.014 142.373 240.874 142.513L240.314 141.953C240.174 141.813 239.895 141.813 239.755 141.953L239.055 142.653C238.915 142.793 238.915 143.073 239.055 143.213L239.615 143.772C239.475 143.912 239.475 144.192 239.335 144.332H238.495C238.215 144.332 238.075 144.472 238.075 144.752V145.732C238.075 146.012 238.215 146.152 238.495 146.152H239.335C239.335 146.432 239.475 146.572 239.615 146.712L239.055 147.271C238.915 147.411 238.915 147.691 239.055 147.831L239.755 148.531C239.895 148.671 240.174 148.671 240.314 148.531L240.874 147.971C241.014 148.111 241.294 148.111 241.434 148.251V149.091C241.434 149.371 241.574 149.511 241.854 149.511H242.834C243.114 149.511 243.254 149.371 243.254 149.091V148.251C243.534 148.251 243.674 148.111 243.814 147.971L244.373 148.531C244.513 148.671 244.793 148.671 244.933 148.531L245.633 147.831C245.773 147.691 245.773 147.411 245.633 147.271L245.073 146.712C245.213 146.572 245.213 146.292 245.353 146.152H246.193C246.473 146.152 246.613 146.012 246.613 145.732V144.752C246.613 144.472 246.333 144.332 246.193 144.332ZM242.414 146.852C241.434 146.852 240.734 146.152 240.734 145.172C240.734 144.192 241.434 143.492 242.414 143.492C243.394 143.492 244.093 144.192 244.093 145.172C244.093 146.152 243.254 146.852 242.414 146.852Z" fill="white"/>
<path d="M256.129 139.713H253.47V142.372H256.129V139.713Z" fill="#353537"/>
<path d="M260.466 139.713H257.807V142.372H260.466V139.713Z" fill="#353537"/>
<path d="M256.128 143.912H253.469V146.572H256.128V143.912Z" fill="#353537"/>
<path d="M260.465 143.913H257.806V146.572H260.465V143.913Z" fill="#F065A6"/>
<path d="M256.128 147.971H253.469V150.63H256.128V147.971Z" fill="#F065A6"/>
<path d="M260.465 147.971H257.806V150.63H260.465V147.971Z" fill="#F065A6"/>
<path d="M352.986 163.787C352.986 163.787 341.229 173.305 331.012 169.945C320.935 166.586 317.016 147.551 317.016 147.551C317.016 147.551 319.255 143.632 317.016 142.372C317.016 142.372 317.435 139.153 315.196 138.873C312.957 138.593 303.999 141.253 313.097 148.251C313.097 148.251 315.616 182.682 335.211 183.802C354.666 185.062 354.526 180.163 354.526 180.163L352.986 163.787Z" fill="#2DC1BD"/>
<path d="M352.986 163.787L354.525 180.163C354.525 180.163 357.874 183.877 345.047 184.003C343.102 180.487 342.669 171.546 344.398 168.765C348.338 166.857 352.986 163.787 352.986 163.787Z" fill="#2FB1AE"/>
<path d="M317.015 147.412C317.015 147.412 317.435 146.572 317.855 145.592C319.955 144.892 318.835 139.574 317.995 138.734C317.295 138.034 316.315 138.454 315.896 138.734C315.476 137.894 312.956 133.135 311.557 133.555C310.577 133.835 311.557 137.054 312.396 139.154C309.457 140.273 306.658 143.073 313.236 148.111C313.236 148.111 313.516 151.89 314.636 156.929C316.315 156.509 317.995 156.089 319.675 155.389C317.715 150.911 317.015 147.412 317.015 147.412Z" fill="#FFBBA7"/>
<path d="M375.801 199.199L367.263 209.977L369.083 212.076L380.28 203.118L375.801 199.199Z" fill="#FFBBA7"/>
<path d="M358.865 160.988C358.865 160.988 372.582 162.388 375.661 166.866C378.74 171.345 389.937 183.522 388.677 192.76C387.558 201.997 382.239 204.797 382.239 204.797L375.661 199.058C375.661 199.058 380 195.559 379.16 192.2C378.46 188.701 368.942 179.603 368.942 179.603L361.524 164.627L358.865 160.988Z" fill="#2DC1BD"/>
<path d="M388.82 293.674C388.82 293.674 370.765 296.194 348.65 296.194C326.536 296.194 308.48 293.674 308.48 293.674C308.48 293.674 326.536 291.155 348.65 291.155C370.765 291.155 388.82 293.674 388.82 293.674Z" fill="#BAC7F7"/>
<path d="M365.726 287.515L366.146 289.754L366.706 292.693L354.249 295.773C353.549 295.913 352.989 295.213 353.409 294.513C353.969 293.673 354.809 292.833 355.788 292.134C358.028 290.314 360.547 288.774 360.547 288.774L365.726 287.515Z" fill="white"/>
<path d="M344.173 287.515L344.033 289.754L343.893 292.693L331.156 292.973C330.456 292.973 330.036 292.134 330.596 291.574C331.296 290.874 332.416 290.314 333.396 289.754C335.915 288.494 338.714 287.655 338.714 287.655L344.173 287.515Z" fill="white"/>
<path d="M367.686 210.675C367.686 210.675 366.147 230.27 361.808 247.626L366.147 288.355L359.288 289.055C359.288 289.055 352.15 262.322 350.191 256.023C347.951 249.025 350.191 231.53 350.191 231.53C350.191 231.53 344.172 244.966 344.172 251.405C344.172 257.843 344.872 287.655 344.872 287.655C344.872 287.655 340.253 288.915 338.014 287.655C335.774 286.396 333.955 247.905 333.955 247.905L342.913 206.196C342.913 206.196 354.809 209.415 367.686 210.675Z" fill="#023D5F"/>
<path d="M370.903 212.077C371.323 208.018 372.583 180.445 370.763 174.286C366.984 160.57 358.726 160.99 358.726 160.99C356.207 166.868 351.028 162.809 351.028 162.809C351.028 162.809 341.791 168.408 344.87 183.664C346.829 193.461 342.91 202.559 339.831 207.738C348.929 214.036 360.686 215.576 370.903 212.077Z" fill="#2DC1BD"/>
<path d="M350.469 163.367C350.469 163.367 347.11 165.327 347.11 167.147C347.11 168.966 349.349 171.625 349.349 171.625L352.568 167.846L355.647 172.325C355.647 172.325 365.725 164.627 359.147 160.288C352.568 156.089 350.469 163.367 350.469 163.367Z" fill="white"/>
<path d="M344.452 147.693C344.452 147.693 341.933 161.41 349.491 161.27C357.049 161.13 359.848 155.671 359.288 152.452C358.728 149.233 358.308 142.794 351.87 141.954C345.432 141.255 344.452 147.693 344.452 147.693Z" fill="#FFBBA7"/>
<path d="M365.865 144.614C365.305 143.634 364.466 142.934 363.486 142.374C363.486 141.814 363.346 141.114 363.206 140.555C362.926 139.995 362.506 139.435 362.086 138.875C362.226 139.575 362.226 140.555 362.086 141.254C361.806 140.555 361.386 139.715 360.826 139.155C360.407 138.735 359.847 138.455 359.427 138.175C357.047 137.056 354.388 136.636 351.729 136.916C351.169 136.916 350.469 137.056 349.909 137.056C349.349 137.056 348.65 136.776 348.23 136.356C348.51 137.195 349.069 138.035 349.629 138.595C344.031 140.555 344.871 145.873 344.871 145.873C346.69 145.173 348.65 146.153 348.65 146.153C348.51 151.192 357.747 153.571 357.747 153.571C359.147 152.312 360.966 153.011 360.966 153.011C362.086 153.711 362.086 154.691 362.086 154.691C364.186 153.151 364.745 145.453 364.745 145.453C365.305 145.313 365.865 145.313 366.425 145.593C366.145 145.313 366.005 145.034 365.865 144.614Z" fill="#0E0E15"/>
<path d="M357.328 155.531C357.608 156.93 358.868 157.77 360.128 157.63C361.387 157.49 362.367 156.09 362.227 154.831C361.947 153.431 360.687 152.591 359.428 152.731C358.028 152.871 357.048 154.131 357.328 155.531Z" fill="#FFBBA7"/>
<path d="M358.73 154.832L359.01 156.652C359.01 156.652 359.01 156.932 359.15 157.491C359.15 158.191 359.289 159.311 359.289 160.431C359.289 162.11 359.15 163.93 358.45 164.49C357.05 165.749 351.731 166.029 351.032 165.749C350.752 165.609 350.612 164.63 350.612 163.51C350.612 162.81 350.612 162.11 350.612 161.271C350.612 159.031 350.752 156.652 350.752 156.652L358.73 154.832Z" fill="#FFBBA7"/>
<path d="M359.15 157.49C359.15 158.19 359.289 159.31 359.289 160.429C357.19 161.409 352.991 163.229 350.612 163.369C350.612 162.669 350.612 161.969 350.612 161.129C350.752 161.129 358.17 159.59 359.15 157.49Z" fill="#F1A893"/>
<path d="M381.258 101.223H353.266C351.726 101.223 350.466 102.482 350.466 104.022V124.037C350.466 125.576 351.726 126.836 353.266 126.836H354.805V133.694L361.663 126.836H381.258C382.798 126.836 384.058 125.576 384.058 124.037V104.022C384.058 102.482 382.798 101.223 381.258 101.223Z" fill="#00BEB9"/>
<path d="M380.138 105.142H354.385V107.382H380.138V105.142Z" fill="white"/>
<path d="M380.138 110.32H354.384V112.56H380.138V110.32Z" fill="white"/>
<path d="M380.138 115.359H354.384V117.598H380.138V115.359Z" fill="white"/>
<path d="M368.241 120.537H354.384V122.776H368.241V120.537Z" fill="white"/>
<path d="M227.437 258.683H195.525C194.265 258.683 193.285 257.703 193.285 256.444C193.285 255.184 194.265 254.204 195.525 254.204H227.437C228.696 254.204 229.676 255.184 229.676 256.444C229.676 257.703 228.696 258.683 227.437 258.683Z" fill="#FFA9D2"/>
<path d="M213.579 262.182H209.241V284.157H213.579V262.182Z" fill="#343434"/>
<path d="M214.839 258.684H208.121V267.222H214.839V258.684Z" fill="#616161"/>
<path d="M224.499 283.178H198.326V285.977H224.499V283.178Z" fill="#FFA9D2"/>
<path d="M202.244 288.216C202.244 289.476 201.124 290.596 199.865 290.596C198.605 290.596 197.485 289.476 197.485 288.216C197.485 286.957 198.605 285.837 199.865 285.837C201.124 285.837 202.244 286.957 202.244 288.216Z" fill="#343434"/>
<path d="M225.479 288.216C225.479 289.476 224.359 290.595 223.1 290.595C221.84 290.595 220.72 289.476 220.72 288.216C220.72 286.956 221.84 285.837 223.1 285.837C224.359 285.837 225.479 286.956 225.479 288.216Z" fill="#343434"/>
<path d="M241.852 249.725C241.572 243.007 224.497 241.467 224.497 241.467C223.797 241.467 216.519 241.467 210.78 241.607C205.042 241.607 197.904 241.467 197.064 241.467C197.064 241.467 179.988 243.007 179.708 249.725C179.428 256.443 188.386 291.014 188.386 291.014H195.804C195.804 291.014 196.504 256.303 194.544 255.044C194.544 255.044 203.782 254.904 210.78 254.344C217.779 254.904 227.016 255.044 227.016 255.044C225.057 256.303 225.756 291.014 225.756 291.014H233.175C233.175 291.014 242.132 256.443 241.852 249.725Z" fill="#3555C5"/>
<path d="M194.964 291.015L194.824 292.974V293.534L194.684 295.633H182.927C182.227 295.633 181.947 294.794 182.507 294.374C182.647 294.234 182.787 294.094 183.067 293.954C183.627 293.534 184.466 293.114 185.166 292.694C187.546 291.575 190.065 290.875 190.065 290.875H194.964V291.015Z" fill="#353537"/>
<path d="M194.684 293.673L194.544 295.773H182.787C182.087 295.773 181.807 294.933 182.367 294.513C182.507 294.373 182.647 294.233 182.927 294.093C185.446 294.233 189.505 294.233 194.684 293.673Z" fill="white"/>
<path d="M227.295 291.014L227.435 292.974V293.534L227.575 295.633H239.332C240.032 295.633 240.312 294.794 239.752 294.374C239.612 294.234 239.472 294.094 239.192 293.954C238.633 293.534 237.793 293.114 237.093 292.694C234.714 291.574 232.194 290.875 232.194 290.875H227.295V291.014Z" fill="#353537"/>
<path d="M227.437 293.673L227.577 295.773H239.334C240.034 295.773 240.314 294.933 239.754 294.513C239.614 294.373 239.474 294.233 239.194 294.093C236.675 294.233 232.616 294.233 227.437 293.673Z" fill="white"/>
<path d="M227.437 241.607L227.157 241.747C216.1 247.065 203.223 247.345 192.026 242.306C192.026 242.306 192.865 229.85 195.385 214.873C196.505 208.295 197.904 201.297 199.864 194.579C200.284 194.439 200.703 194.299 201.123 194.159C206.442 192.339 212.041 192.339 217.359 194.159C217.779 194.299 218.199 194.439 218.759 194.579C224.777 216.273 227.437 241.607 227.437 241.607Z" fill="#7DE3EB"/>
<path d="M199.864 194.579C198.044 201.297 196.505 208.295 195.385 214.874C192.586 216.973 189.087 219.912 188.527 222.152C188.247 223.411 189.507 224.391 191.466 225.231L189.647 231.389H185.728C185.728 231.389 177.33 228.87 177.89 222.012C178.309 215.154 191.466 200.317 193.286 197.658C194.125 196.398 197.065 195.279 199.864 194.579Z" fill="#6CDEE7"/>
<path d="M202.244 231.388V229.989C202.244 229.989 195.525 227.049 191.466 225.23L189.647 231.388H202.244Z" fill="#F4EED8"/>
<path d="M218.481 194.578H218.62C220.44 201.297 221.84 208.295 222.959 214.873C225.759 216.973 229.258 219.912 229.818 222.151C230.098 223.411 228.838 224.391 226.878 225.23L228.698 231.389H232.617C232.617 231.389 241.015 228.87 240.455 222.011C240.035 215.153 226.878 200.317 225.059 197.658C224.219 196.398 221.28 195.278 218.481 194.578Z" fill="#6CDEE7"/>
<path d="M216.101 231.389V227.89C216.101 227.89 222.819 227.05 226.878 225.231L228.698 231.389H216.101Z" fill="#F4EED8"/>
<path d="M227.297 209.835H194.266V231.53H227.297V209.835Z" fill="#353537"/>
<path d="M217.36 194.158C216.94 196.398 215.54 200.877 209.802 200.877C204.063 200.877 201.824 196.538 201.124 194.298C201.684 194.158 202.104 194.018 202.664 193.878C207.002 192.759 211.621 192.759 216.1 193.878C216.52 193.878 216.94 194.018 217.36 194.158Z" fill="#F39F86"/>
<path d="M215.962 193.738C214.422 195.417 211.763 197.797 208.824 197.797C205.325 197.937 203.365 195.137 202.665 193.738C207.004 192.478 211.623 192.478 215.962 193.738Z" fill="#D88C75"/>
<path d="M217.501 186.041C217.501 191.919 213.721 196.538 209.103 196.538C204.484 196.538 200.705 191.779 200.705 186.041C200.705 180.162 204.484 175.543 209.103 175.543C213.721 175.403 217.501 180.162 217.501 186.041Z" fill="#F39F86"/>
<path d="M203.643 188C203.643 189.4 202.524 190.519 201.124 190.519C199.724 190.519 198.605 189.4 198.605 188C198.605 186.6 199.724 185.481 201.124 185.481C202.524 185.481 203.643 186.6 203.643 188Z" fill="#F39F86"/>
<path d="M220.021 188C220.021 189.4 218.901 190.519 217.501 190.519C216.102 190.519 214.982 189.4 214.982 188C214.982 186.6 216.102 185.481 217.501 185.481C218.901 185.481 220.021 186.6 220.021 188Z" fill="#F39F86"/>
<path d="M218.48 185.62C218.34 186.46 217.08 186.46 217.22 187.3C216.94 186.6 216.66 185.76 216.1 185.2C216.1 183.381 214.701 181.561 212.881 181.281C211.622 181.001 210.222 181.421 208.822 181.281C207.283 181.141 205.743 180.442 204.623 179.322C202.804 181.561 201.404 184.501 201.264 187.44C200.984 186.74 200.424 186.18 199.725 185.9C199.725 185.9 197.625 179.042 200.424 177.782C200.424 177.782 199.305 174.423 203.784 173.723C208.262 173.023 216.24 175.123 217.5 172.184C217.5 172.184 219.32 176.942 217.5 178.202C217.5 178.202 219.46 178.062 218.48 185.62Z" fill="#616161"/>
<path d="M125.683 185.202C125.823 181.843 127.783 178.764 127.363 175.544C126.523 169.666 118.125 166.027 112.807 167.706C110.987 168.266 109.588 169.666 108.608 171.345C107.068 173.025 105.948 174.985 105.389 177.224C104.829 179.323 105.249 181.423 105.249 183.662C105.249 184.362 105.249 185.062 105.109 185.762C104.829 186.462 104.409 187.021 103.849 187.581C102.869 188.561 101.75 189.401 100.77 190.381C99.5101 191.64 98.6703 193.18 97.9705 194.859C96.9908 197.239 96.2909 199.758 96.9908 202.138C97.8305 204.517 99.93 206.197 102.029 207.316C106.228 209.556 110.987 210.395 115.606 209.696C118.545 209.276 121.345 208.296 123.444 206.197C125.404 204.237 126.523 201.298 126.803 198.499C127.083 195.699 126.663 192.76 126.103 190.101C125.963 188.421 125.543 186.742 125.683 185.202ZM105.948 184.082C105.948 183.102 105.948 182.123 105.809 181.003C105.669 177.924 106.368 175.404 107.908 173.165C107.908 173.305 107.768 173.445 107.768 173.725C106.788 177.084 106.928 180.723 105.948 184.082Z" fill="#FF6748"/>
<path d="M91.95 262.602C85.0918 261.762 80.4729 259.103 78.3735 254.344C72.2151 240.907 89.1507 216.274 89.8506 215.154L91.8101 216.554C91.6701 216.834 74.8744 241.047 80.4729 253.364C82.1525 257.283 86.0715 259.523 92.09 260.222L91.95 262.602Z" fill="#616161"/>
<path d="M108.326 230.69H89.4312C86.072 230.69 83.4127 228.031 83.4127 224.672V211.795C83.4127 208.436 86.072 205.776 89.4312 205.776H108.326V230.69Z" fill="#FFA9D2"/>
<path d="M117.564 263.861H85.6521C84.3925 263.861 83.4127 262.881 83.4127 261.621C83.4127 260.362 84.3925 259.382 85.6521 259.382H117.564C118.824 259.382 119.803 260.362 119.803 261.621C119.803 262.881 118.824 263.861 117.564 263.861Z" fill="#FFA9D2"/>
<path d="M101.892 259.105C101.892 259.105 118.547 259.805 123.726 259.105L118.827 291.017H125.266C125.266 291.017 139.262 252.667 134.503 247.908C129.745 243.149 114.768 243.709 114.768 243.709L101.052 250.847L101.892 259.105Z" fill="#023D5F"/>
<path d="M119.805 291.015L119.945 292.974L120.225 295.774H131.982C132.682 295.774 132.962 294.934 132.402 294.514C131.702 293.954 130.723 293.394 129.743 292.834C127.364 291.715 124.844 291.015 124.844 291.015H119.805Z" fill="#353537"/>
<path d="M119.805 291.015L119.945 292.974C120.645 293.394 121.485 293.674 122.325 293.814C123.724 294.094 125.124 294.094 126.384 294.094C127.643 294.094 128.903 293.814 129.603 292.834C127.224 291.715 124.704 291.015 124.704 291.015H119.805Z" fill="#F4EED8"/>
<path d="M122.746 188.422C122.746 188.422 126.245 189.962 127.924 196.82C129.464 203.818 130.724 220.614 130.724 220.614L142.481 224.393L142.621 229.712L118.827 230.831L119.386 210.397L122.746 188.422Z" fill="#88C292"/>
<path d="M152.978 282.198L153.678 284.018L154.658 286.537L165.855 283.038C166.555 282.898 166.555 281.918 165.995 281.638C165.155 281.218 164.035 281.078 163.055 280.799C160.536 280.379 157.737 280.519 157.737 280.519L152.978 282.198Z" fill="#353537"/>
<path d="M152.978 282.198L153.678 284.018C154.517 284.158 155.357 284.158 156.197 284.158C157.597 284.018 158.856 283.598 160.256 283.178C161.376 282.758 162.495 282.198 162.915 280.939C160.396 280.519 157.597 280.659 157.597 280.659L152.978 282.198Z" fill="#F4EED8"/>
<path d="M92.655 237.831C92.655 237.831 88.4561 255.326 98.6735 258.546C108.751 261.765 137.444 249.308 137.444 249.308L151.86 282.48L158.858 280.52C158.858 280.52 150.6 238.251 145.282 237.691C139.963 237.131 122.747 237.691 122.747 237.691H92.655V237.831Z" fill="#0E4666"/>
<path d="M122.744 237.829L120.084 238.249L112.526 239.649L90.2718 243.708C90.2718 243.708 99.5095 218.234 100.069 214.875C100.629 211.516 100.769 202.418 100.069 197.94C99.3695 193.461 106.508 188.422 106.508 188.422H122.604L122.744 188.562C131.141 198.359 122.744 237.829 122.744 237.829Z" fill="#BDE8C4"/>
<path d="M120.085 238.249L112.527 239.649C117.426 206.897 109.588 188.422 109.588 188.422H122.605L122.744 188.562C127.643 194.721 121.205 231.531 120.085 238.249Z" fill="#023D5F"/>
<path d="M109.588 188.422C109.588 188.422 114.207 195.56 119.385 194.021C124.424 192.481 122.744 188.422 122.744 188.422H109.588Z" fill="#F39F86"/>
<path d="M147.797 228.732C146.677 227.752 144.298 224.813 142.338 224.533C141.498 224.393 135.76 226.632 135.76 226.632C135.76 226.632 125.962 226.212 117.005 225.512L116.585 231.111C122.883 230.971 130.161 230.831 136.18 230.691C140.659 231.951 145.277 230.831 147.517 230.131C148.077 229.851 148.217 229.152 147.797 228.732Z" fill="#F4EED8"/>
<path d="M106.65 188.422C106.65 188.422 98.532 191.081 96.8525 200.459C95.1729 209.977 96.0127 232.091 98.9519 233.771C101.751 235.31 118.967 232.931 118.967 232.931V225.233L107.49 224.533C107.35 224.673 113.928 194.301 106.65 188.422Z" fill="#88C292"/>
<path d="M103.708 267.361H99.3693V289.336H103.708V267.361Z" fill="#343434"/>
<path d="M104.967 263.862H98.2488V272.4H104.967V263.862Z" fill="#616161"/>
<path d="M114.626 288.356H88.4526V291.155H114.626V288.356Z" fill="#FFA9D2"/>
<path d="M92.371 293.395C92.371 294.655 91.2512 295.775 89.9916 295.775C88.7319 295.775 87.6122 294.655 87.6122 293.395C87.6122 292.136 88.7319 291.016 89.9916 291.016C91.2512 291.016 92.371 292.136 92.371 293.395Z" fill="#343434"/>
<path d="M115.603 293.396C115.603 294.655 114.483 295.775 113.223 295.775C111.964 295.775 110.844 294.655 110.844 293.396C110.844 292.136 111.964 291.016 113.223 291.016C114.623 291.016 115.603 292.136 115.603 293.396Z" fill="#343434"/>
<path d="M279.364 231.389H120.924V234.888H279.364V231.389Z" fill="#FF6748"/>
<path d="M275.026 234.888H125.404V238.807H275.026V234.888Z" fill="#E34932"/>
<path d="M132.122 298.852L138.421 238.807H133.662L129.183 298.852H132.122Z" fill="#17A59E"/>
<path d="M271.247 298.852L266.768 238.807H262.009L268.308 298.852H271.247Z" fill="#17A59E"/>
<path d="M147.238 229.01H128.623V231.39H147.238V229.01Z" fill="#353537"/>
<path d="M170.752 231.39H140.939L145.698 209.835H175.511L170.752 231.39Z" fill="#353537"/>
<path d="M125.125 176.382C125.125 176.382 126.944 187.86 120.646 187.72C114.348 187.44 112.108 182.961 112.668 180.162C113.228 177.502 113.648 172.044 119.106 171.484C124.425 170.924 125.125 176.382 125.125 176.382Z" fill="#F39F86"/>
<path d="M114.208 182.68C114.068 183.8 112.949 184.5 111.829 184.36C110.709 184.22 110.009 183.1 110.149 181.98C110.289 180.861 111.409 180.161 112.529 180.301C113.648 180.441 114.348 181.561 114.208 182.68Z" fill="#F39F86"/>
<path d="M111.127 180.582C111.127 180.582 112.667 180.022 113.927 181.142C113.927 181.142 121.765 179.322 121.625 175.123C121.625 175.123 123.164 174.423 124.704 174.983C124.704 174.983 123.304 167.985 114.347 170.364C105.389 172.744 110.148 181.981 110.148 181.981C110.148 181.981 110.148 181.142 111.127 180.582Z" fill="#FF6748"/>
<path d="M112.948 182.121L112.668 183.66C112.668 183.66 112.668 183.94 112.528 184.36C112.528 184.92 112.388 185.9 112.388 186.74C112.388 188.139 112.528 189.679 113.088 190.099C114.208 191.218 118.687 191.498 119.247 191.218C119.387 191.078 119.526 190.379 119.666 189.259C119.666 188.699 119.666 188.139 119.806 187.439C119.806 185.48 119.806 183.66 119.806 183.66L112.948 182.121Z" fill="#F39F86"/>
<path d="M112.668 184.359C112.668 184.919 112.528 185.899 112.528 186.739C114.208 187.579 117.847 189.258 119.806 189.398C119.806 188.838 119.806 188.278 119.946 187.579C119.526 187.579 113.368 186.039 112.668 184.359Z" fill="#D88B75"/>
<path d="M154.375 133.554H126.383C124.843 133.554 123.583 134.814 123.583 136.353V156.368C123.583 157.908 124.843 159.168 126.383 159.168H127.922V166.026L134.78 159.168H154.375C155.915 159.168 157.175 157.908 157.175 156.368V136.353C157.175 134.814 155.915 133.554 154.375 133.554Z" fill="#3555C5"/>
<path d="M153.256 139.433L145.978 141.533L148.077 143.492L144.158 147.411L136.6 141.813L127.923 151.05L129.322 152.31L136.88 144.332L144.438 149.931L149.337 144.752L151.437 146.852L153.256 139.433Z" fill="white"/>
<path d="M191.605 110.32C191.605 117.878 185.446 124.177 177.748 124.177C170.19 124.177 163.892 118.018 163.892 110.32C163.892 102.622 170.19 96.4637 177.748 96.4637C185.446 96.4637 191.605 102.622 191.605 110.32Z" fill="#C6F7EB"/>
<path d="M177.669 123.05C177.221 123.05 176.622 123.05 176.173 122.902L176.323 121.86C177.221 122.009 178.268 122.009 179.166 121.86L179.316 122.902C178.717 122.902 178.268 123.05 177.669 123.05ZM173.18 122.158C172.282 121.86 171.235 121.265 170.487 120.67L171.085 119.778C171.833 120.373 172.731 120.819 173.629 121.116L173.18 122.158ZM182.308 122.158L182.009 121.265C182.907 120.968 183.655 120.521 184.553 119.926L185.152 120.819C184.104 121.265 183.206 121.86 182.308 122.158ZM168.242 118.736C167.494 117.992 167.045 117.1 166.446 116.207L167.344 115.761C167.793 116.654 168.392 117.397 168.99 117.992L168.242 118.736ZM187.247 118.736L186.498 117.992C187.097 117.249 187.695 116.505 188.144 115.612L189.042 116.059C188.593 117.1 187.995 117.992 187.247 118.736ZM165.399 113.381C165.1 112.34 165.1 111.447 165.1 110.406H166.147C166.147 111.298 166.297 112.34 166.446 113.232L165.399 113.381ZM190.09 113.381L189.042 113.083C189.192 112.191 189.342 111.298 189.342 110.257H190.389C190.389 111.298 190.389 112.34 190.09 113.381ZM166.297 107.579L165.249 107.282C165.549 106.24 165.848 105.348 166.297 104.455L167.195 104.902C166.895 105.794 166.596 106.687 166.297 107.579ZM189.042 107.579C188.743 106.687 188.444 105.794 187.995 104.902L188.893 104.455C189.342 105.348 189.79 106.24 189.94 107.282L189.042 107.579ZM168.99 102.67L168.242 102.075C168.99 101.331 169.739 100.587 170.487 99.9924L171.085 100.885C170.337 101.331 169.589 101.926 168.99 102.67ZM186.498 102.67C185.9 101.926 185.152 101.331 184.403 100.885L185.002 99.9924C185.9 100.587 186.648 101.182 187.247 102.075L186.498 102.67ZM173.48 99.5461L173.18 98.6536C174.078 98.356 175.126 98.0585 176.173 97.9097L176.323 98.9511C175.275 98.9511 174.377 99.0998 173.48 99.5461ZM181.859 99.3974C180.962 99.0998 180.064 98.8023 179.166 98.8023L179.316 97.761C180.363 97.9097 181.411 98.0585 182.308 98.5048L181.859 99.3974Z" fill="#3555C5"/>
<path d="M181.377 114.62L178.071 111.324V103.597L178.881 103.597V111.113L181.961 114.056L181.377 114.62Z" fill="#3555C5"/>
<path d="M199.165 154.268V160.567L195.806 163.786H189.508V154.268H199.165Z" fill="#F4EED8"/>
<path d="M199.165 160.566L195.806 163.785V160.566H199.165Z" fill="#EBE0BE"/>
<path d="M185.309 145.031H175.792V154.548H185.309V145.031Z" fill="#FF9797"/>
<path d="M190.904 185.901L191.324 187.3L191.744 185.901C192.024 184.781 192.863 183.801 193.983 183.242C192.863 182.682 192.164 181.702 191.744 180.582L191.324 179.183L190.904 180.582C190.624 181.702 189.784 182.682 188.664 183.242C189.784 183.801 190.484 184.781 190.904 185.901Z" fill="#3555C5"/>
<path d="M187.266 191.499L187.546 192.619L187.826 191.499C188.106 190.659 188.666 189.819 189.505 189.4C188.666 188.98 188.106 188.14 187.826 187.3L187.546 186.18L187.266 187.3C186.986 188.14 186.426 188.98 185.586 189.4C186.426 189.819 186.986 190.519 187.266 191.499Z" fill="#3555C5"/>
<path d="M377.056 149.929L377.476 151.329L377.896 149.929C378.176 148.81 379.015 147.83 380.135 147.27C379.015 146.71 378.316 145.73 377.896 144.611L377.476 143.211L377.056 144.611C376.776 145.73 375.936 146.71 374.817 147.27C375.936 147.69 376.636 148.67 377.056 149.929Z" fill="#3555C5"/>
<path d="M373.418 155.527L373.698 156.647L373.978 155.527C374.258 154.688 374.818 153.848 375.657 153.428C374.818 153.008 374.258 152.168 373.978 151.329L373.698 150.209L373.418 151.329C373.138 152.168 372.578 153.008 371.738 153.428C372.578 153.848 373.138 154.548 373.418 155.527Z" fill="#3555C5"/>
<path d="M324.433 201.157L323.874 202.976L323.314 201.157C322.894 199.617 321.914 198.358 320.514 197.658C321.914 196.958 322.894 195.698 323.314 194.159L323.874 192.339L324.433 194.159C324.853 195.698 325.833 196.958 327.233 197.658C325.833 198.358 324.853 199.757 324.433 201.157Z" fill="#3555C5"/>
<path d="M329.052 208.435L328.632 209.834L328.212 208.435C327.932 207.315 327.092 206.335 326.113 205.775C327.232 205.216 327.932 204.236 328.212 203.116L328.632 201.716L329.052 203.116C329.332 204.236 330.172 205.216 331.151 205.775C330.172 206.195 329.332 207.175 329.052 208.435Z" fill="#3555C5"/>
<path d="M135.899 186.88L135.479 188.28L135.059 186.88C134.779 185.76 133.94 184.781 132.82 184.221C133.94 183.661 134.64 182.681 135.059 181.562L135.479 180.162L135.899 181.562C136.179 182.681 137.019 183.661 138.139 184.221C137.019 184.641 136.179 185.62 135.899 186.88Z" fill="#3555C5"/>
<path d="M139.536 192.48L139.257 193.6L138.977 192.48C138.697 191.64 138.137 190.8 137.297 190.38C138.137 189.961 138.697 189.121 138.977 188.281L139.257 187.161L139.536 188.281C139.816 189.121 140.376 189.961 141.216 190.38C140.376 190.8 139.816 191.5 139.536 192.48Z" fill="#3555C5"/>
<path d="M177.424 147.043H183.908" stroke="white" stroke-width="0.648446"/>
<path d="M177.424 148.988H183.908" stroke="white" stroke-width="0.648446"/>
<path d="M177.424 150.933H183.908" stroke="white" stroke-width="0.648446"/>
<path d="M177.424 152.879H181.314" stroke="white" stroke-width="0.648446"/>
</g>
<defs>
<clipPath id="clip0">
<rect width="326.817" height="216.581" fill="white" transform="translate(62 96.4646)"/>
</clipPath>
</defs>
</svg>
